2020-06-22T07:31:38+00:00 CRITICAL Uncaught Error: Call to undefined function WeDevs\Dokan\REST\dokan_pro() in /home/aelahmar/dari/wp-content/plugins/dokan-lite/includes/REST/StoreController.php:492
Stack trace:
#0 /home/aelahmar/dari/wp-includes/rest-api/class-wp-rest-server.php(1015): WeDevs\Dokan\REST\StoreController->get_store_reviews(Object(WP_REST_Request))
#1 /home/aelahmar/dari/wp-includes/rest-api/class-wp-rest-server.php(342): WP_REST_Server->dispatch(Object(WP_REST_Request))
#2 /home/aelahmar/dari/wp-includes/rest-api.php(312): WP_REST_Server->serve_request('/dokan/v1/store...')
#3 /home/aelahmar/dari/wp-includes/class-wp-hook.php(287): rest_api_loaded(Object(WP))
#4 /home/aelahmar/dari/wp-includes/class-wp-hook.php(311): WP_Hook->apply_filters(NULL, Array)
#5 /home/aelahmar/dari/wp-includes/plugin.php(544): WP_Hook->do_action(Array)
#6 /home/aelahmar/dari/wp-includes/class-wp.php(388): do_action_ref_array('parse_request', Array)
#7 /home/aelahmar/dari/wp-includes/class-wp.php(739): WP->parse_request('')
#8 /home/aelahmar/dari/wp-in in /home/aelahmar/dari/wp-content/plugins/dokan-lite/includes/REST/StoreController.php on line 492

