{
  "HorizonLayout":[
    {
      "layout":"logo",
      "showMenu":false,
      "showSearch":true,
      "showLogo":true,
      "image":"https://i.imgur.com/oEILqMM.png"
    }
  ],
  "Setting":{
    "MainColor":"#0371B9",
    "ProductListLayout":"list",
    "StickyHeader":true,
    "ProductDetail":"simpleType"
  },
  "TabBar":[
    {
      "pos":100,
      "title":"",
      "layout":"home",
      "url":"https://inspireui.com",
      "icon":"assets/icons/tabs/icon-home.png"
    },
    {
      "layout":"category",
      "icon":"grid",
      "data":{
        "id":1,
        "container":{
          "height":0.5,
          "image":{
            "height":0.5,
            "width":1.0,
            "url":"https://images.unsplash.com/photo-1584352587534-5763683125b5?ixlib=rb-1.2.1&ixid=eyJhcHBfaWQiOjEyMDd9&auto=format&fit=crop&w=2700&q=80",
            "align":{
              "x":1.0,
              "y":1.0}
          },
          "header":{
            "align":{
              "x":-1.0,
              "y":0.8
            },
            "padding":{
              "horizontal":20.0,
              "vertical":10.0
            },
            "color":"#FFFFFF",
            "background":"#000000",
            "text":"About US"}
        },
        "subHeader":"This is sub heading",
        "description":"This is description"
      },
      "pos":432,
      "categoryLayout":"card"
    },
    {
      "pos":519,
      "layout":"cart",
      "icon":"shopping_cart"
    },
    {
      "settings":[
        "products",
        "myorders",
        "notifications",
        "wishlist",
        "language",
        "darkTheme",
        "order",
        "rating",
        "privacy",
        "about"],
      "layout":"profile",
      "icon":"assets/icons/tabs/icon-user.png",
      "pos":385
    }
  ],
  "VerticalLayout":{
    "key":"24ymdfjp8k",
    "layout":"menu",
    "name":"",
    "category":"63"}
}